{
	"field" : {
		"login" : "^.{8,20}$" ,
		"passwd" : "^.{8,20}$" ,
		"fio" : "^.{8,20}$" ,
		"photo" : 1048576 ,
		"photo_path" : "photo/%s.jpg" ,
		"photo_cut": "base64,"
	} ,
	"msg" : {
		"lang" : {
			"ru" : "Русский" ,
			"en" : "English"
		} ,
		"err" : {
			"internal" : {
				"ru" : "Внутренняя ошибка" ,
				"en" : "Internal error"
			} ,
			"login" : {
				"ru" : "Логин должен состоять из 8-20 символов" ,
				"en" : "Login must be between 8 and 20 chars length"
			} ,
			"passwd" : {
				"ru" : "Пароль должен состоять из 8-20 символов" ,
				"en" : "Password must be between 8 and 20 chars length"
			} ,
			"fio" : {
				"ru" : "Поле ФИО должно состоять из 8-20 символов" ,
				"en" : "Name must be between 8 and 20 chars length"
			} ,
			"user_exists" : {
				"ru" : "Пользователь с таким логином существует" ,
				"en" : "Login exists"
			} ,
			"photo" : {
				"ru" : "Файл должен быть объёмом не более 2х мегабайт" ,
				"en" : "The file must be less or equals than 2mb" 
			}
		} ,
		"dict" : {
			"register" : {
				"ru" : "зарегистрироваться" ,
				"en" : "register"
			} ,
			"registration_success" : {
				"ru" : "Успешная регистрация" ,
				"en" : "Success"
			} ,
			"registration_failure" : {
				"ru" : "Ошибка регистрации" ,
				"en" : "Failure"
			} ,
			"registration" : {
				"ru" : "Регистрация пользователя" ,
				"en" : "Create an account"
			} ,
			"fio" : {
				"ru" : "ФИО" ,
				"en" : "name"
			} ,
			"login" : {
				"ru" : "логин" ,
				"en" : "login"
			} ,
			"passwd" : {
				"ru" : "пароль" ,
				"en" : "password"
			} ,
			"photo" : {
				"ru" : "фото" ,
				"en" : "photo"
			}
		}
	} ,
	"charset" : "utf-8" ,
	"session" : {
		"expires" : 3600
	} ,
	"include" : {
		"composer" : "../composer.json"
	} ,
	"db" : {
		"dsn" : "mysql:dbname=test30" ,
		"user" : "root" ,
		"password" : "" ,
		"charset" : "utf8"
	} ,
	"view" : {
		"index" : "index" ,
		"default" : "default" ,
		"error" : "error" ,
		"pattern" : "%s/%s.tpl" ,
		"path" : "../../view" ,
		"compiled" : "../../tmp"
	} ,
	"router" : {
		"action" : "%sAction" ,
		"map" : {
			"" : "index" ,
			"register" : "register"
		}
	} ,
	"http" : {
		"version" : "HTTP/1.0" ,
		"header" : {
			"pattern" : "%s %d %s" ,
			"sub_pattern" : "%s: %s" ,
			"default" : "Content-Type: text/html; charset=utf-8" ,
			"default_name" : "Content-Type" ,
			"javascript" : "text-javascript"
		} ,
		"state" : {
			"200" : "OK" ,
			"404": "Not found"
		}
	}
}
